do for [i=1:9]{
set hidden3d
set dgrid3d 50,50 qnorm 2
set zrange[0.5:2]
splot 'data.000'.i.'.dat' using 1:2:3 w l 
pause 1
}
t=51
do for [i=10:t]{
set hidden3d
set dgrid3d 50,50 qnorm 2
set zrange[0.5:2]
splot 'data.00'.i.'.dat' using 1:2:3 w l 
pause 1
}
